<?xml version="1.0" encoding="UTF-8" standalone="no"?>
<!DOCTYPE svg PUBLIC "-//W3C//DTD SVG 1.1//EN" "http://www.w3.org/Graphics/SVG/1.1/DTD/svg11.dtd">
<svg width="100%" height="100%" viewBox="0 0 91 11" version="1.1" xmlns="http://www.w3.org/2000/svg" xmlns:xlink="http://www.w3.org/1999/xlink" xml:space="preserve" xmlns:serif="http://www.serif.com/" style="fill-rule:evenodd;clip-rule:evenodd;stroke-linejoin:round;stroke-miterlimit:1.41421;">
    <g transform="matrix(1,0,0,1,-41.4353,-253.613)">
        <g transform="matrix(1,0,0,1,-8.76838,102.432)">
            <path d="M50.204,153.978L50.912,153.978L50.96,155.094L51.032,155.094C51.128,154.63 51.286,154.312 51.506,154.14C51.726,153.968 52.016,153.882 52.376,153.882L52.376,154.722C51.864,154.722 51.506,154.904 51.302,155.268C51.098,155.632 50.996,156.222 50.996,157.038L50.996,160.098L50.204,160.098L50.204,153.978Z" style="fill:rgb(189,93,56);fill-rule:nonzero;"/>
            <path d="M56.408,157.29L53.72,157.29C53.72,157.954 53.746,158.432 53.798,158.724C53.85,159.016 53.958,159.218 54.122,159.33C54.286,159.442 54.556,159.498 54.932,159.498C55.132,159.498 55.36,159.486 55.616,159.462C55.872,159.438 56.092,159.41 56.276,159.378L56.276,160.038C56.108,160.078 55.884,160.114 55.604,160.146C55.324,160.178 55.052,160.194 54.788,160.194C54.236,160.194 53.83,160.1 53.57,159.912C53.31,159.724 53.138,159.416 53.054,158.988C52.97,158.56 52.928,157.914 52.928,157.05C52.928,156.17 52.962,155.522 53.03,155.106C53.098,154.69 53.26,154.382 53.516,154.182C53.772,153.982 54.184,153.882 54.752,153.882C55.272,153.882 55.648,153.976 55.88,154.164C56.112,154.352 56.258,154.65 56.318,155.058C56.378,155.466 56.408,156.126 56.408,157.038L56.408,157.29ZM54.74,154.578C54.42,154.578 54.192,154.626 54.056,154.722C53.92,154.818 53.83,155.006 53.786,155.286C53.742,155.566 53.72,156.034 53.72,156.69L55.652,156.69L55.652,156.51C55.652,155.918 55.628,155.49 55.58,155.226C55.532,154.962 55.446,154.788 55.322,154.704C55.198,154.62 55.004,154.578 54.74,154.578Z" style="fill:rgb(189,93,56);fill-rule:nonzero;"/>
            <path d="M59.516,160.194C59.212,160.194 58.954,160.128 58.742,159.996C58.53,159.864 58.384,159.618 58.304,159.258L58.232,159.258L58.184,160.098L57.476,160.098L57.476,151.182L58.268,151.182L58.268,154.722L58.34,154.722C58.42,154.426 58.556,154.212 58.748,154.08C58.94,153.948 59.2,153.882 59.528,153.882C59.96,153.882 60.28,153.972 60.488,154.152C60.696,154.332 60.84,154.64 60.92,155.076C61,155.512 61.04,156.166 61.04,157.038C61.04,157.918 60.998,158.578 60.914,159.018C60.83,159.458 60.682,159.764 60.47,159.936C60.258,160.108 59.94,160.194 59.516,160.194ZM59.264,159.474C59.568,159.474 59.786,159.422 59.918,159.318C60.05,159.214 60.138,158.998 60.182,158.67C60.226,158.342 60.248,157.798 60.248,157.038C60.248,156.278 60.226,155.734 60.182,155.406C60.138,155.078 60.05,154.862 59.918,154.758C59.786,154.654 59.568,154.602 59.264,154.602C59.016,154.602 58.82,154.658 58.676,154.77C58.532,154.882 58.432,155.066 58.376,155.322C58.304,155.706 58.268,156.278 58.268,157.038C58.268,157.822 58.3,158.382 58.364,158.718C58.42,158.99 58.52,159.184 58.664,159.3C58.808,159.416 59.008,159.474 59.264,159.474Z" style="fill:rgb(189,93,56);fill-rule:nonzero;"/>
            <path d="M65.432,157.29L62.744,157.29C62.744,157.954 62.77,158.432 62.822,158.724C62.874,159.016 62.982,159.218 63.146,159.33C63.31,159.442 63.58,159.498 63.956,159.498C64.156,159.498 64.384,159.486 64.64,159.462C64.896,159.438 65.116,159.41 65.3,159.378L65.3,160.038C65.132,160.078 64.908,160.114 64.628,160.146C64.348,160.178 64.076,160.194 63.812,160.194C63.26,160.194 62.854,160.1 62.594,159.912C62.334,159.724 62.162,159.416 62.078,158.988C61.994,158.56 61.952,157.914 61.952,157.05C61.952,156.17 61.986,155.522 62.054,155.106C62.122,154.69 62.284,154.382 62.54,154.182C62.796,153.982 63.208,153.882 63.776,153.882C64.296,153.882 64.672,153.976 64.904,154.164C65.136,154.352 65.282,154.65 65.342,155.058C65.402,155.466 65.432,156.126 65.432,157.038L65.432,157.29ZM63.764,154.578C63.444,154.578 63.216,154.626 63.08,154.722C62.944,154.818 62.854,155.006 62.81,155.286C62.766,155.566 62.744,156.034 62.744,156.69L64.676,156.69L64.676,156.51C64.676,155.918 64.652,155.49 64.604,155.226C64.556,154.962 64.47,154.788 64.346,154.704C64.222,154.62 64.028,154.578 63.764,154.578Z" style="fill:rgb(189,93,56);fill-rule:nonzero;"/>
            <rect x="66.5" y="151.182" width="0.792" height="8.916" style="fill:rgb(189,93,56);fill-rule:nonzero;"/>
            <path d="M71.888,160.098L71.084,155.454L71.024,155.454L70.22,160.098L69.248,160.098L68.096,153.978L68.9,153.978L69.728,158.946L69.8,158.946L70.628,153.978L71.492,153.978L72.344,158.946L72.416,158.946L73.232,153.978L73.988,153.978L72.848,160.098L71.888,160.098Z" style="fill:rgb(189,93,56);fill-rule:nonzero;"/>
            <path d="M75.776,160.194C75.432,160.194 75.158,160.14 74.954,160.032C74.75,159.924 74.602,159.742 74.51,159.486C74.418,159.23 74.372,158.87 74.372,158.406C74.372,157.942 74.414,157.584 74.498,157.332C74.582,157.08 74.72,156.898 74.912,156.786C75.104,156.674 75.38,156.618 75.74,156.618C75.988,156.618 76.42,156.638 77.036,156.678L77.036,156.198C77.036,155.694 77.008,155.334 76.952,155.118C76.896,154.902 76.792,154.758 76.64,154.686C76.488,154.614 76.232,154.578 75.872,154.578C75.424,154.578 75.008,154.618 74.624,154.698L74.624,154.026C75.12,153.93 75.608,153.882 76.088,153.882C76.56,153.882 76.918,153.95 77.162,154.086C77.406,154.222 77.578,154.452 77.678,154.776C77.778,155.1 77.828,155.578 77.828,156.21L77.828,160.098L77.12,160.098L77.072,159.258L77.012,159.258C76.868,159.882 76.456,160.194 75.776,160.194ZM75.98,159.474C76.228,159.474 76.428,159.44 76.58,159.372C76.732,159.304 76.84,159.15 76.904,158.91C76.992,158.614 77.036,158.198 77.036,157.662L77.036,157.218L75.932,157.218C75.716,157.218 75.552,157.246 75.44,157.302C75.328,157.358 75.25,157.466 75.206,157.626C75.162,157.786 75.14,158.03 75.14,158.358C75.14,158.67 75.162,158.902 75.206,159.054C75.25,159.206 75.33,159.314 75.446,159.378C75.562,159.442 75.74,159.474 75.98,159.474Z" style="fill:rgb(189,93,56);fill-rule:nonzero;"/>
            <path d="M79.016,153.978L79.724,153.978L79.772,155.094L79.844,155.094C79.94,154.63 80.098,154.312 80.318,154.14C80.538,153.968 80.828,153.882 81.188,153.882L81.188,154.722C80.676,154.722 80.318,154.904 80.114,155.268C79.91,155.632 79.808,156.222 79.808,157.038L79.808,160.098L79.016,160.098L79.016,153.978Z" style="fill:rgb(189,93,56);fill-rule:nonzero;"/>
            <path d="M81.956,153.978L82.664,153.978L82.712,155.094L82.784,155.094C82.88,154.63 83.038,154.312 83.258,154.14C83.478,153.968 83.768,153.882 84.128,153.882L84.128,154.722C83.616,154.722 83.258,154.904 83.054,155.268C82.85,155.632 82.748,156.222 82.748,157.038L82.748,160.098L81.956,160.098L81.956,153.978Z" style="fill:rgb(189,93,56);fill-rule:nonzero;"/>
            <path d="M84.884,152.154L84.884,151.182L85.712,151.182L85.712,152.154L84.884,152.154ZM84.896,160.098L84.896,153.978L85.688,153.978L85.688,160.098L84.896,160.098Z" style="fill:rgb(189,93,56);fill-rule:nonzero;"/>
            <path d="M88.568,160.194C88.016,160.194 87.616,160.11 87.368,159.942C87.12,159.774 86.958,159.482 86.882,159.066C86.806,158.65 86.768,157.978 86.768,157.05C86.768,156.122 86.806,155.446 86.882,155.022C86.958,154.598 87.12,154.302 87.368,154.134C87.616,153.966 88.016,153.882 88.568,153.882C89.128,153.882 89.53,153.966 89.774,154.134C90.018,154.302 90.178,154.596 90.254,155.016C90.33,155.436 90.368,156.114 90.368,157.05C90.368,157.978 90.33,158.65 90.254,159.066C90.178,159.482 90.018,159.774 89.774,159.942C89.53,160.11 89.128,160.194 88.568,160.194ZM88.568,159.498C88.896,159.498 89.128,159.442 89.264,159.33C89.4,159.218 89.486,159.006 89.522,158.694C89.558,158.382 89.576,157.834 89.576,157.05C89.576,156.258 89.558,155.706 89.522,155.394C89.486,155.082 89.4,154.868 89.264,154.752C89.128,154.636 88.896,154.578 88.568,154.578C88.24,154.578 88.01,154.636 87.878,154.752C87.746,154.868 87.66,155.084 87.62,155.4C87.58,155.716 87.56,156.266 87.56,157.05C87.56,157.826 87.58,158.372 87.62,158.688C87.66,159.004 87.746,159.218 87.878,159.33C88.01,159.442 88.24,159.498 88.568,159.498Z" style="fill:rgb(189,93,56);fill-rule:nonzero;"/>
            <path d="M91.448,153.978L92.156,153.978L92.204,155.094L92.276,155.094C92.372,154.63 92.53,154.312 92.75,154.14C92.97,153.968 93.26,153.882 93.62,153.882L93.62,154.722C93.108,154.722 92.75,154.904 92.546,155.268C92.342,155.632 92.24,156.222 92.24,157.038L92.24,160.098L91.448,160.098L91.448,153.978Z" style="fill:rgb(189,93,56);fill-rule:nonzero;"/>
            <path d="M97.22,161.394C96.268,161.394 95.606,161.286 95.234,161.07C94.862,160.854 94.63,160.446 94.538,159.846C94.446,159.246 94.4,158.154 94.4,156.57C94.4,154.986 94.446,153.894 94.538,153.294C94.63,152.694 94.862,152.286 95.234,152.07C95.606,151.854 96.268,151.746 97.22,151.746C98.172,151.746 98.834,151.854 99.206,152.07C99.578,152.286 99.81,152.694 99.902,153.294C99.994,153.894 100.04,154.986 100.04,156.57C100.04,157.41 100.008,158.012 99.944,158.376C99.88,158.74 99.784,158.968 99.656,159.06C99.528,159.152 99.32,159.198 99.032,159.198L97.952,159.198L97.904,158.502L97.844,158.502C97.748,159.022 97.444,159.282 96.932,159.282C96.532,159.282 96.252,159.172 96.092,158.952C95.932,158.732 95.852,158.33 95.852,157.746C95.852,157.17 95.928,156.77 96.08,156.546C96.232,156.322 96.512,156.21 96.92,156.21C97.192,156.21 97.508,156.222 97.868,156.246L97.868,155.862C97.868,155.446 97.848,155.146 97.808,154.962C97.768,154.778 97.694,154.656 97.586,154.596C97.478,154.536 97.296,154.506 97.04,154.506C96.736,154.506 96.412,154.542 96.068,154.614L96.068,154.002C96.412,153.922 96.804,153.882 97.244,153.882C97.612,153.882 97.89,153.94 98.078,154.056C98.266,154.172 98.394,154.37 98.462,154.65C98.53,154.93 98.564,155.334 98.564,155.862L98.564,158.718L99.104,158.718C99.224,158.718 99.312,158.682 99.368,158.61C99.424,158.538 99.464,158.354 99.488,158.058C99.512,157.762 99.524,157.266 99.524,156.57C99.524,155.282 99.504,154.378 99.464,153.858C99.424,153.338 99.322,152.958 99.158,152.718C98.994,152.478 98.712,152.33 98.312,152.274C98.04,152.234 97.672,152.214 97.208,152.214C96.808,152.214 96.496,152.222 96.272,152.238C95.816,152.278 95.498,152.412 95.318,152.64C95.138,152.868 95.026,153.244 94.982,153.768C94.938,154.292 94.916,155.226 94.916,156.57C94.916,157.89 94.94,158.812 94.988,159.336C95.036,159.86 95.158,160.236 95.354,160.464C95.55,160.692 95.892,160.83 96.38,160.878C96.588,160.902 96.868,160.914 97.22,160.914C97.9,160.914 98.348,160.902 98.564,160.878L98.564,161.37C98.404,161.386 97.956,161.394 97.22,161.394ZM97.1,158.634C97.3,158.634 97.454,158.59 97.562,158.502C97.67,158.414 97.748,158.264 97.796,158.052C97.844,157.84 97.868,157.53 97.868,157.122L97.868,156.762L97.076,156.762C96.924,156.762 96.81,156.784 96.734,156.828C96.658,156.872 96.606,156.96 96.578,157.092C96.55,157.224 96.536,157.43 96.536,157.71C96.536,157.974 96.55,158.168 96.578,158.292C96.606,158.416 96.66,158.504 96.74,158.556C96.82,158.608 96.94,158.634 97.1,158.634Z" style="fill:rgb(189,93,56);fill-rule:nonzero;"/>
            <rect x="101.252" y="151.182" width="0.792" height="8.916" style="fill:rgb(189,93,56);fill-rule:nonzero;"/>
            <path d="M104.384,160.194C104.04,160.194 103.766,160.14 103.562,160.032C103.358,159.924 103.21,159.742 103.118,159.486C103.026,159.23 102.98,158.87 102.98,158.406C102.98,157.942 103.022,157.584 103.106,157.332C103.19,157.08 103.328,156.898 103.52,156.786C103.712,156.674 103.988,156.618 104.348,156.618C104.596,156.618 105.028,156.638 105.644,156.678L105.644,156.198C105.644,155.694 105.616,155.334 105.56,155.118C105.504,154.902 105.4,154.758 105.248,154.686C105.096,154.614 104.84,154.578 104.48,154.578C104.032,154.578 103.616,154.618 103.232,154.698L103.232,154.026C103.728,153.93 104.216,153.882 104.696,153.882C105.168,153.882 105.526,153.95 105.77,154.086C106.014,154.222 106.186,154.452 106.286,154.776C106.386,155.1 106.436,155.578 106.436,156.21L106.436,160.098L105.728,160.098L105.68,159.258L105.62,159.258C105.476,159.882 105.064,160.194 104.384,160.194ZM104.588,159.474C104.836,159.474 105.036,159.44 105.188,159.372C105.34,159.304 105.448,159.15 105.512,158.91C105.6,158.614 105.644,158.198 105.644,157.662L105.644,157.218L104.54,157.218C104.324,157.218 104.16,157.246 104.048,157.302C103.936,157.358 103.858,157.466 103.814,157.626C103.77,157.786 103.748,158.03 103.748,158.358C103.748,158.67 103.77,158.902 103.814,159.054C103.858,159.206 103.938,159.314 104.054,159.378C104.17,159.442 104.348,159.474 104.588,159.474Z" style="fill:rgb(189,93,56);fill-rule:nonzero;"/>
            <path d="M108.488,160.098L107.072,153.978L107.876,153.978L108.956,158.97L109.016,158.97L110.084,153.978L110.876,153.978L109.448,160.098L108.488,160.098Z" style="fill:rgb(189,93,56);fill-rule:nonzero;"/>
            <path d="M112.652,160.194C112.308,160.194 112.034,160.14 111.83,160.032C111.626,159.924 111.478,159.742 111.386,159.486C111.294,159.23 111.248,158.87 111.248,158.406C111.248,157.942 111.29,157.584 111.374,157.332C111.458,157.08 111.596,156.898 111.788,156.786C111.98,156.674 112.256,156.618 112.616,156.618C112.864,156.618 113.296,156.638 113.912,156.678L113.912,156.198C113.912,155.694 113.884,155.334 113.828,155.118C113.772,154.902 113.668,154.758 113.516,154.686C113.364,154.614 113.108,154.578 112.748,154.578C112.3,154.578 111.884,154.618 111.5,154.698L111.5,154.026C111.996,153.93 112.484,153.882 112.964,153.882C113.436,153.882 113.794,153.95 114.038,154.086C114.282,154.222 114.454,154.452 114.554,154.776C114.654,155.1 114.704,155.578 114.704,156.21L114.704,160.098L113.996,160.098L113.948,159.258L113.888,159.258C113.744,159.882 113.332,160.194 112.652,160.194ZM112.856,159.474C113.104,159.474 113.304,159.44 113.456,159.372C113.608,159.304 113.716,159.15 113.78,158.91C113.868,158.614 113.912,158.198 113.912,157.662L113.912,157.218L112.808,157.218C112.592,157.218 112.428,157.246 112.316,157.302C112.204,157.358 112.126,157.466 112.082,157.626C112.038,157.786 112.016,158.03 112.016,158.358C112.016,158.67 112.038,158.902 112.082,159.054C112.126,159.206 112.206,159.314 112.322,159.378C112.438,159.442 112.616,159.474 112.856,159.474Z" style="fill:rgb(189,93,56);fill-rule:nonzero;"/>
            <path d="M117.932,160.194C117.628,160.194 117.37,160.128 117.158,159.996C116.946,159.864 116.8,159.618 116.72,159.258L116.648,159.258L116.6,160.098L115.892,160.098L115.892,151.182L116.684,151.182L116.684,154.722L116.756,154.722C116.836,154.426 116.972,154.212 117.164,154.08C117.356,153.948 117.616,153.882 117.944,153.882C118.376,153.882 118.696,153.972 118.904,154.152C119.112,154.332 119.256,154.64 119.336,155.076C119.416,155.512 119.456,156.166 119.456,157.038C119.456,157.918 119.414,158.578 119.33,159.018C119.246,159.458 119.098,159.764 118.886,159.936C118.674,160.108 118.356,160.194 117.932,160.194ZM117.68,159.474C117.984,159.474 118.202,159.422 118.334,159.318C118.466,159.214 118.554,158.998 118.598,158.67C118.642,158.342 118.664,157.798 118.664,157.038C118.664,156.278 118.642,155.734 118.598,155.406C118.554,155.078 118.466,154.862 118.334,154.758C118.202,154.654 117.984,154.602 117.68,154.602C117.432,154.602 117.236,154.658 117.092,154.77C116.948,154.882 116.848,155.066 116.792,155.322C116.72,155.706 116.684,156.278 116.684,157.038C116.684,157.822 116.716,158.382 116.78,158.718C116.836,158.99 116.936,159.184 117.08,159.3C117.224,159.416 117.424,159.474 117.68,159.474Z" style="fill:rgb(189,93,56);fill-rule:nonzero;"/>
            <path d="M120.512,152.154L120.512,151.182L121.34,151.182L121.34,152.154L120.512,152.154ZM120.524,160.098L120.524,153.978L121.316,153.978L121.316,160.098L120.524,160.098Z" style="fill:rgb(189,93,56);fill-rule:nonzero;"/>
            <path d="M122.852,160.098L122.852,154.674L122.144,154.674L122.144,153.978L122.852,153.978L122.852,152.202L123.644,152.202L123.644,153.978L124.52,153.978L124.52,154.674L123.644,154.674L123.644,160.098L122.852,160.098Z" style="fill:rgb(189,93,56);fill-rule:nonzero;"/>
            <rect x="124.724" y="159.054" width="0.912" height="1.044" style="fill:rgb(189,93,56);fill-rule:nonzero;"/>
            <path d="M129.512,160.038C129.176,160.142 128.812,160.194 128.42,160.194C127.916,160.194 127.542,160.09 127.298,159.882C127.054,159.674 126.894,159.356 126.818,158.928C126.742,158.5 126.704,157.874 126.704,157.05C126.704,156.202 126.75,155.556 126.842,155.112C126.934,154.668 127.1,154.352 127.34,154.164C127.58,153.976 127.932,153.882 128.396,153.882C128.78,153.882 129.14,153.926 129.476,154.014L129.476,154.686C129.212,154.614 128.916,154.578 128.588,154.578C128.268,154.578 128.032,154.64 127.88,154.764C127.728,154.888 127.626,155.116 127.574,155.448C127.522,155.78 127.496,156.306 127.496,157.026C127.496,157.77 127.522,158.31 127.574,158.646C127.626,158.982 127.728,159.208 127.88,159.324C128.032,159.44 128.272,159.498 128.6,159.498C128.976,159.498 129.28,159.458 129.512,159.378L129.512,160.038Z" style="fill:rgb(189,93,56);fill-rule:nonzero;"/>
            <path d="M132.08,160.194C131.528,160.194 131.128,160.11 130.88,159.942C130.632,159.774 130.47,159.482 130.394,159.066C130.318,158.65 130.28,157.978 130.28,157.05C130.28,156.122 130.318,155.446 130.394,155.022C130.47,154.598 130.632,154.302 130.88,154.134C131.128,153.966 131.528,153.882 132.08,153.882C132.64,153.882 133.042,153.966 133.286,154.134C133.53,154.302 133.69,154.596 133.766,155.016C133.842,155.436 133.88,156.114 133.88,157.05C133.88,157.978 133.842,158.65 133.766,159.066C133.69,159.482 133.53,159.774 133.286,159.942C133.042,160.11 132.64,160.194 132.08,160.194ZM132.08,159.498C132.408,159.498 132.64,159.442 132.776,159.33C132.912,159.218 132.998,159.006 133.034,158.694C133.07,158.382 133.088,157.834 133.088,157.05C133.088,156.258 133.07,155.706 133.034,155.394C132.998,155.082 132.912,154.868 132.776,154.752C132.64,154.636 132.408,154.578 132.08,154.578C131.752,154.578 131.522,154.636 131.39,154.752C131.258,154.868 131.172,155.084 131.132,155.4C131.092,155.716 131.072,156.266 131.072,157.05C131.072,157.826 131.092,158.372 131.132,158.688C131.172,159.004 131.258,159.218 131.39,159.33C131.522,159.442 131.752,159.498 132.08,159.498Z" style="fill:rgb(189,93,56);fill-rule:nonzero;"/>
            <path d="M140.168,156.462C140.168,155.886 140.148,155.474 140.108,155.226C140.068,154.978 139.992,154.812 139.88,154.728C139.768,154.644 139.584,154.602 139.328,154.602C139.016,154.602 138.792,154.684 138.656,154.848C138.52,155.012 138.436,155.244 138.404,155.544C138.372,155.844 138.356,156.318 138.356,156.966L138.356,160.098L137.564,160.098L137.564,156.462C137.564,155.886 137.544,155.474 137.504,155.226C137.464,154.978 137.39,154.812 137.282,154.728C137.174,154.644 136.992,154.602 136.736,154.602C136.424,154.602 136.198,154.69 136.058,154.866C135.918,155.042 135.832,155.284 135.8,155.592C135.768,155.9 135.752,156.358 135.752,156.966L135.752,160.098L134.96,160.098L134.96,153.978L135.668,153.978L135.716,154.818L135.788,154.818C135.868,154.522 136.004,154.292 136.196,154.128C136.388,153.964 136.672,153.882 137.048,153.882C137.44,153.882 137.726,153.954 137.906,154.098C138.086,154.242 138.208,154.482 138.272,154.818L138.356,154.818C138.436,154.514 138.574,154.282 138.77,154.122C138.966,153.962 139.252,153.882 139.628,153.882C140.004,153.882 140.286,153.956 140.474,154.104C140.662,154.252 140.79,154.482 140.858,154.794C140.926,155.106 140.96,155.554 140.96,156.138L140.96,160.098L140.168,160.098L140.168,156.462Z" style="fill:rgb(189,93,56);fill-rule:nonzero;"/>
        </g>
    </g>
</svg>
